{
    "$schema": "https://docs.renovatebot.com/renovate-schema.json",
    "extends": [
      "config:base",
      ":automergeAll"
    ],
    "gitLabAutomerge": true,
    "gitLabIgnoreApprovals": true,
    "packageRules": [
        {
          "matchManagers": ["regex"],
          "semanticCommitType": "fix"
        },
        {
          "registryUrls": ["https://gitlab.com"],
          "matchDatasources": ["gitlab-tags"]
        }
    ],
    "regexManagers": [
        {
            "fileMatch": ["manifest.yml"],
            "matchStrings": [ "sample-dev-tools\/-\/raw\/(?<currentValue>.+?)\/manifest.yml" ],
            "depNameTemplate": "hoppr/examples/continuous-delivery-demo/sample-dev-tools",
            "datasourceTemplate": "gitlab-tags"
          },
        {
            "fileMatch": ["manifest.yml"],
            "matchStrings": [ "sample-python-dependencies\/-\/raw\/(?<currentValue>.+?)\/manifest.yml" ],
            "depNameTemplate": "hoppr/examples/continuous-delivery-demo/sample-python-dependencies",
            "datasourceTemplate": "gitlab-tags"
        }
    ]
}
